<svg width="16" height="18" viewBox="0 0 16 18" fill="none" xmlns="http://www.w3.org/2000/svg">
<g clip-path="url(#clip0)">
<path d="M14.761 5.33004C14.761 4.67004 14.201 4.15004 13.491 4.15004H12.101C11.661 3.00004 10.931 1.53004 10.531 0.870039C10.301 0.510039 10.131 0.340039 9.70098 0.270039C8.91098 0.130039 7.10098 0.130039 6.31098 0.270039C5.88098 0.340039 5.70098 0.520039 5.47098 0.870039C5.07098 1.53004 4.34098 3.01004 3.90098 4.14004H2.51098C1.81098 4.14004 1.24098 4.67004 1.25098 5.27004L0.000976562 16.65C0.000976562 17.31 0.560977 17.83 1.27098 17.83H14.741C15.091 17.83 15.431 17.69 15.671 17.45C15.891 17.23 16.001 16.94 15.991 16.6L14.761 5.33004ZM6.32098 1.40004C6.39098 1.29004 6.42098 1.26004 6.47098 1.25004C7.16098 1.13004 8.85098 1.13004 9.58098 1.24004C9.59098 1.25004 9.62098 1.28004 9.68098 1.39004C10.021 1.94004 10.601 3.12004 11.021 4.13004H4.98098C5.40098 3.13004 5.98098 1.95004 6.32098 1.40004ZM14.741 16.83H1.27098C1.12098 16.83 1.00098 16.75 1.00098 16.7L2.24098 5.33004C2.24098 5.25004 2.36098 5.15004 2.51098 5.15004H3.57098C3.53098 5.31004 3.51098 5.49004 3.49098 5.79004C3.48098 6.07004 3.68098 6.31004 3.96098 6.33004C4.24098 6.35004 4.47098 6.14004 4.49098 5.87004C4.52098 5.46004 4.54098 5.33004 4.59098 5.15004H11.391C11.451 5.33004 11.471 5.47004 11.501 5.87004C11.521 6.13004 11.741 6.33004 12.001 6.33004C12.011 6.33004 12.031 6.33004 12.041 6.33004C12.321 6.31004 12.521 6.07004 12.501 5.79004C12.481 5.49004 12.451 5.31004 12.421 5.15004H13.481C13.621 5.15004 13.751 5.23004 13.751 5.39004L14.951 16.76C14.911 16.8 14.831 16.83 14.741 16.83Z" fill="white"/>
</g>
<defs>
<clipPath id="clip0">
<rect width="16" height="18" fill="white" transform="translate(0.000976562)"/>
</clipPath>
</defs>
</svg>
