<svg width="16" height="14" viewBox="0 0 16 14" fill="none" xmlns="http://www.w3.org/2000/svg">
<g clip-path="url(#clip0)">
<path d="M7.49685 13.1954L1.07265 6.77124C-0.354947 5.34364 -0.354947 3.01869 1.07265 1.5809C1.76606 0.887492 2.694 0.5 3.66273 0.5C4.63146 0.5 5.56959 0.897689 6.2528 1.5809L7.49685 2.80455L8.74091 1.5707C10.1277 0.183889 12.5444 0.183889 13.9313 1.5707C15.3589 2.9983 15.3589 5.32325 13.9313 6.76105L7.49685 13.1954ZM3.66273 1.25459C2.88774 1.25459 2.16375 1.5605 1.6131 2.11115C0.481219 3.24303 0.481219 5.08871 1.6131 6.2206L7.49685 12.1044L13.3806 6.2206C14.5125 5.08871 14.5125 3.24303 13.3806 2.11115C12.2793 1.00986 10.3724 1.00986 9.27116 2.11115L7.49685 3.88545L5.71235 2.12135C5.17191 1.5707 4.42751 1.25459 3.66273 1.25459Z" fill="white"/>
</g>
<defs>
<clipPath id="clip0">
<rect width="15.0004" height="13" fill="white" transform="translate(0.00195312 0.5)"/>
</clipPath>
</defs>
</svg>
